sim/sim_build/demod64.vcd
$date
   Fri Nov 21 16:01:52 2025
$end

$version
  2025.1.0
  $dumpfile ("/home/yhawaz/radioHead/sim/sim_build/demod64.fst") 
$end

$timescale
  1ps
$end

$scope module demod64 $end
$var wire 1 ! s00_axis_aclk $end
$var wire 1 " s00_axis_aresetn $end
$var wire 1 # s00_axis_tlast $end
$var wire 1 $ s00_axis_tvalid $end
$var wire 32 % s00_axis_tdata [31:0] $end
$var wire 4 & s00_axis_tstrb [3:0] $end
$var reg 1 ' s00_axis_tready $end
$var wire 1 ( m00_axis_tready $end
$var reg 1 ) m00_axis_tvalid $end
$var reg 1 * m00_axis_tlast $end
$var reg 64 + m00_axis_tdata [63:0] $end
$var reg 8 , m00_axis_tstrb [7:0] $end
$var reg 32 - val_reg [31:0] $end
$var reg 64 . alpha [63:0] $end
$var reg 32 / ac [31:0] $end
$var reg 32 0 bd [31:0] $end
$var reg 32 1 bc [31:0] $end
$var reg 32 2 ad [31:0] $end
$var reg 16 3 cur_real [15:0] $end
$var reg 16 4 prev_real [15:0] $end
$var reg 16 5 cur_imag [15:0] $end
$var reg 16 6 prev_imag [15:0] $end
$var reg 32 7 final_real [31:0] $end
$var reg 32 8 final_imag [31:0] $end
$upscope $end
$enddefinitions $end

#0
$dumpvars
1!
0"
0#
0$
b0 %
b1111 &
1'
0(
0)
0*
b0 +
b0 ,
b0 -
b0 .
b0 /
b0 0
b0 1
b0 2
b0 3
b0 4
b0 5
b0 6
b0 7
b0 8
$end

#5000
0!

#10000
1!
1"
1(

#15000
0!
1$
b1111100111 %
b1111100111 3

#15001
1!
0"
0$
b0 %
0(
b0 3

#20001
0!

#25001
1!
1"
1(

#30001
0!
1$

#35001
1!
1)
b11111111 ,

#40001
0!
b11111111111111110000000000000000 %
b1111111111111111 5

#45001
1!
b11111111111111110000000000000000 -
b1111111111111111 6

#50001
0!
b11111111111111100000000000000000 %
b1111111111111110 5

#55001
1!
b11111111111111100000000000000000 -
b1111111111111110 6

#60001
0!
b11111111111111000000000000000000 %
b1 .
b1 0
b1111111111111100 5
b1 7

#65001
1!
b1 +
b11111111111111000000000000000000 -
b10 .
b10 0
b1111111111111100 6
b10 7

#70001
0!
b11111111111110110000000000000000 %
b1111111111111011 5

#75001
1!
b10 +
b11111111111110110000000000000000 -
b11 .
b11 0
b1111111111111011 6
b11 7

#80001
0!

#85001
1!
b11 +

#90001
0!

#95001
1!

#100001
0!
b11111111111111000000000000000000 %
b10 .
b10 0
b1111111111111100 5
b10 7

#105001
1!
b10 +
b11111111111111000000000000000000 -
b1111111111111100 6

#110001
0!
b11111111111110110000000000000000 %
b1111111111111011 5

#115001
1!
b11111111111110110000000000000000 -
b11 .
b11 0
b1111111111111011 6
b11 7

#120001
0!

#125001
1!
b11 +

#130001
0!

#135001
1!

#140001
0!

#145001
1!

#150001
0!

#155001
1!

#160001
0!
b11111111111111000000000000000000 %
b10 .
b10 0
b1111111111111100 5
b10 7

#165001
1!
b10 +
b11111111111111000000000000000000 -
b1111111111111100 6

#170001
0!
b11111111111111010000000000000000 %
b1 .
b1 0
b1111111111111101 5
b1 7

#175001
1!
b1 +
b11111111111111010000000000000000 -
b1111111111111101 6

#180001
0!

#185001
1!

#190001
0!
b11111111111111000000000000000000 %
b1111111111111100 5

#195001
1!
b11111111111111000000000000000000 -
b10 .
b10 0
b1111111111111100 6
b10 7

#200001
0!
b11111111111110110000000000000000 %
b1111111111111011 5

#205001
1!
b10 +
b11111111111110110000000000000000 -
b11 .
b11 0
b1111111111111011 6
b11 7

#210001
0!
b11111111111111000000000000000000 %
b10 .
b10 0
b1111111111111100 5
b10 7

#215001
1!
b11111111111111000000000000000000 -
b1111111111111100 6

#220001
0!
b11111111111110110000000000000000 %
b1111111111111011 5

#225001
1!
b11111111111110110000000000000000 -
b11 .
b11 0
b1111111111111011 6
b11 7

#230001
0!
b11111111111111000000000000000000 %
b10 .
b10 0
b1111111111111100 5
b10 7

#235001
1!
b11111111111111000000000000000000 -
b1111111111111100 6

#240001
0!
b11111111111111010000000000000000 %
b1 .
b1 0
b1111111111111101 5
b1 7

#245001
1!
b1 +
b11111111111111010000000000000000 -
b1111111111111101 6

#250001
0!
b11111111111111000000000000000000 %
b1111111111111100 5

#255001
1!
b11111111111111000000000000000000 -
b10 .
b10 0
b1111111111111100 6
b10 7

#260001
0!
b11111111111111010000000000000000 %
b1 .
b1 0
b1111111111111101 5
b1 7

#265001
1!
b11111111111111010000000000000000 -
b1111111111111101 6

#270001
0!
b11111111111111000000000000000000 %
b1111111111111100 5

#275001
1!
b11111111111111000000000000000000 -
b10 .
b10 0
b1111111111111100 6
b10 7

#280001
0!
b11111111111111010000000000000000 %
b1 .
b1 0
b1111111111111101 5
b1 7

#285001
1!
b11111111111111010000000000000000 -
b1111111111111101 6

#290001
0!
b11111111111111000000000000000000 %
b1111111111111100 5

#295001
1!
b11111111111111000000000000000000 -
b10 .
b10 0
b1111111111111100 6
b10 7

#300001
0!

#305001
1!
b10 +

#310001
0!

#315001
1!

#320001
0!

#325001
1!

#330001
0!
b11111111111111010000000000000000 %
b1 .
b1 0
b1111111111111101 5
b1 7

#335001
1!
b1 +
b11111111111111010000000000000000 -
b1111111111111101 6

#340001
0!
b11111111111111000000000000000000 %
b1111111111111100 5

#345001
1!
b11111111111111000000000000000000 -
b10 .
b10 0
b1111111111111100 6
b10 7

#350001
0!

#355001
1!
b10 +

#360001
0!

#365001
1!

#370001
0!
b11111111111111010000000000000000 %
b1 .
b1 0
b1111111111111101 5
b1 7

#375001
1!
b1 +
b11111111111111010000000000000000 -
b1111111111111101 6

#380001
0!
b11111111111111000000000000000000 %
b1111111111111100 5

#385001
1!
b11111111111111000000000000000000 -
b10 .
b10 0
b1111111111111100 6
b10 7

#390001
0!
b11111111111110110000000000000000 %
b1111111111111011 5

#395001
1!
b10 +
b11111111111110110000000000000000 -
b11 .
b11 0
b1111111111111011 6
b11 7

#400001
0!

#405001
1!
b11 +

#410001
0!
b11111111111111000000000000000000 %
b10 .
b10 0
b1111111111111100 5
b10 7

#415001
1!
b10 +
b11111111111111000000000000000000 -
b1111111111111100 6

#420001
0!

#425001
1!

#430001
0!
b11111111111110110000000000000000 %
b1111111111111011 5

#435001
1!
b11111111111110110000000000000000 -
b11 .
b11 0
b1111111111111011 6
b11 7

#440001
0!

#445001
1!
b11 +

#450001
0!

#455001
1!

#460001
0!
b11111111111111010000000000000000 %
b1 .
b1 0
b1111111111111101 5
b1 7

#465001
1!
b1 +
b11111111111111010000000000000000 -
b1111111111111101 6

#470001
0!
b11111111111111000000000000000000 %
b1111111111111100 5

#475001
1!
b11111111111111000000000000000000 -
b10 .
b10 0
b1111111111111100 6
b10 7

#480001
0!

#485001
1!
b10 +

#490001
0!

#495001
1!

#500001
0!
b11111111111111010000000000000000 %
b1 .
b1 0
b1111111111111101 5
b1 7

#505001
1!
b1 +
b11111111111111010000000000000000 -
b1111111111111101 6

#510001
0!

#515001
1!

#520001
0!

#525001
1!

#530001
0!
b11111111111111000000000000000000 %
b1111111111111100 5

#535001
1!
b11111111111111000000000000000000 -
b10 .
b10 0
b1111111111111100 6
b10 7

#540001
0!
b11111111111111010000000000000000 %
b1 .
b1 0
b1111111111111101 5
b1 7

#545001
1!
b11111111111111010000000000000000 -
b1111111111111101 6

#550001
0!

#555001
1!

#560001
0!
b11111111111111000000000000000000 %
b1111111111111100 5

#565001
1!
b11111111111111000000000000000000 -
b10 .
b10 0
b1111111111111100 6
b10 7

#570001
0!

#575001
1!
b10 +

#580001
0!
b11111111111110110000000000000000 %
b1111111111111011 5

#585001
1!
b11111111111110110000000000000000 -
b11 .
b11 0
b1111111111111011 6
b11 7

#590001
0!

#595001
1!
b11 +

#600001
0!

#605001
1!

#610001
0!

#615001
1!

#620001
0!
b11111111111111000000000000000000 %
b10 .
b10 0
b1111111111111100 5
b10 7

#625001
1!
b10 +
b11111111111111000000000000000000 -
b1111111111111100 6

#630001
0!
b11111111111110110000000000000000 %
b1111111111111011 5

#635001
1!
b11111111111110110000000000000000 -
b11 .
b11 0
b1111111111111011 6
b11 7

#640001
0!
b11111111111110100000000000000000 %
b1111111111111010 5

#645001
1!
b11 +
b11111111111110100000000000000000 -
b100 .
b100 0
b1111111111111010 6
b100 7

#650001
0!
b11111111111110110000000000000000 %
b11 .
b11 0
b1111111111111011 5
b11 7

#655001
1!
b11111111111110110000000000000000 -
b1111111111111011 6

#660001
0!
b11111111111111000000000000000000 %
b10 .
b10 0
b1111111111111100 5
b10 7

#665001
1!
b10 +
b11111111111111000000000000000000 -
b1111111111111100 6

#670001
0!

#675001
1!

#680001
0!
b11111111111110110000000000000000 %
b1111111111111011 5

#685001
1!
b11111111111110110000000000000000 -
b11 .
b11 0
b1111111111111011 6
b11 7

#690001
0!
b11111111111111000000000000000000 %
b10 .
b10 0
b1111111111111100 5
b10 7

#695001
1!
b11111111111111000000000000000000 -
b1111111111111100 6

#700001
0!

#705001
1!

#710001
0!
b11111111111110110000000000000000 %
b1111111111111011 5

#715001
1!
b11111111111110110000000000000000 -
b11 .
b11 0
b1111111111111011 6
b11 7

#720001
0!
b11111111111111000000000000000000 %
b10 .
b10 0
b1111111111111100 5
b10 7

#725001
1!
b11111111111111000000000000000000 -
b1111111111111100 6

#730001
0!

#735001
1!

#740001
0!

#745001
1!

#750001
0!

#755001
1!

#760001
0!

#765001
1!

#770001
0!

#775001
1!

#780001
0!

#785001
1!

#790001
0!

#795001
1!

#800001
0!

#805001
1!

#810001
0!
b11111111111110100000000000000000 %
b11 .
b11 0
b1111111111111010 5
b11 7

#815001
1!
b11 +
b11111111111110100000000000000000 -
b100 .
b100 0
b1111111111111010 6
b100 7

#820001
0!
b11111111111110110000000000000000 %
b11 .
b11 0
b1111111111111011 5
b11 7

#825001
1!
b11111111111110110000000000000000 -
b1111111111111011 6

#830001
0!

#835001
1!

#840001
0!

#845001
1!

#850001
0!

#855001
1!

#860001
0!

#865001
1!

#870001
0!
b11111111111111010000000000000000 %
b1 .
b1 0
b1111111111111101 5
b1 7

#875001
1!
b1 +
b11111111111111010000000000000000 -
b1111111111111101 6

#880001
0!
b11111111111111000000000000000000 %
b1111111111111100 5

#885001
1!
b11111111111111000000000000000000 -
b10 .
b10 0
b1111111111111100 6
b10 7

#890001
0!
b11111111111110110000000000000000 %
b1111111111111011 5

#895001
1!
b10 +
b11111111111110110000000000000000 -
b11 .
b11 0
b1111111111111011 6
b11 7

#900001
0!

#905001
1!
b11 +

#910001
0!
b11111111111111000000000000000000 %
b10 .
b10 0
b1111111111111100 5
b10 7

#915001
1!
b10 +
b11111111111111000000000000000000 -
b1111111111111100 6

#920001
0!

#925001
1!

#930001
0!

#935001
1!

#940001
0!
b11111111111110110000000000000000 %
b1111111111111011 5

#945001
1!
b11111111111110110000000000000000 -
b11 .
b11 0
b1111111111111011 6
b11 7

#950001
0!

#955001
1!
b11 +

#960001
0!
b11111111111111000000000000000000 %
b10 .
b10 0
b1111111111111100 5
b10 7

#965001
1!
b10 +
b11111111111111000000000000000000 -
b1111111111111100 6

#970001
0!

#975001
1!

#980001
0!
b11111111111110110000000000000000 %
b1111111111111011 5

#985001
1!
b11111111111110110000000000000000 -
b11 .
b11 0
b1111111111111011 6
b11 7

#990001
0!
b11111111111111000000000000000000 %
b10 .
b10 0
b1111111111111100 5
b10 7

#995001
1!
b11111111111111000000000000000000 -
b1111111111111100 6

#1000001
0!

#1005001
1!

#1010001
0!

#1015001
1!

#1020001
0!

#1025001
1!

#1030001
0!

#1035001
1!

#1040001
0!

#1045001
1!

#1050001
0!

#1055001
1!

#1060001
0!
b11111111111110110000000000000000 %
b1111111111111011 5

#1065001
1!
b11111111111110110000000000000000 -
b11 .
b11 0
b1111111111111011 6
b11 7

#1070001
0!
b11111111111111000000000000000000 %
b10 .
b10 0
b1111111111111100 5
b10 7

#1075001
1!
b11111111111111000000000000000000 -
b1111111111111100 6

#1080001
0!

#1085001
1!

#1090001
0!

#1095001
1!

#1100001
0!

#1105001
1!

#1110001
0!
b11111111111110110000000000000000 %
b1111111111111011 5

#1115001
1!
b11111111111110110000000000000000 -
b11 .
b11 0
b1111111111111011 6
b11 7

#1120001
0!

#1125001
1!
b11 +

#1130001
0!

#1135001
1!

#1140001
0!

#1145001
1!

#1150001
0!

#1155001
1!

#1160001
0!
b11111111111111000000000000000000 %
b10 .
b10 0
b1111111111111100 5
b10 7

#1165001
1!
b10 +
b11111111111111000000000000000000 -
b1111111111111100 6

#1170001
0!

#1175001
1!

#1180001
0!

#1185001
1!

#1190001
0!

#1195001
1!

#1200001
0!
b11111111111110110000000000000000 %
b1111111111111011 5

#1205001
1!
b11111111111110110000000000000000 -
b11 .
b11 0
b1111111111111011 6
b11 7

#1210001
0!

#1215001
1!
b11 +

#1220001
0!

#1225001
1!

#1230001
0!

#1235001
1!

#1240001
0!

#1245001
1!

#1250001
0!

#1255001
1!

#1260001
0!

#1265001
1!

#1270001
0!

#1275001
1!

#1280001
0!

#1285001
1!

#1290001
0!

#1295001
1!

#1300001
0!

#1305001
1!

#1310001
0!
b11111111111111000000000000000000 %
b10 .
b10 0
b1111111111111100 5
b10 7

#1315001
1!
b10 +
b11111111111111000000000000000000 -
b1111111111111100 6

#1320001
0!
b11111111111111100000000000000000 %
b1 .
b1 0
b1111111111111110 5
b1 7

#1325001
1!
b1 +
b11111111111111100000000000000000 -
b0 .
b0 0
b1111111111111110 6
b0 7

#1330001
0!

#1335001
1!
b0 +

#1340001
0!
b11111111111111010000000000000000 %
b1111111111111101 5

#1345001
1!
b11111111111111010000000000000000 -
b1 .
b1 0
b1111111111111101 6
b1 7

#1350001
0!
b11111111111111000000000000000000 %
b1111111111111100 5

#1355001
1!
b1 +
b11111111111111000000000000000000 -
b10 .
b10 0
b1111111111111100 6
b10 7

#1360001
0!
b11111111111110110000000000000000 %
b1111111111111011 5

#1365001
1!
b10 +
b11111111111110110000000000000000 -
b11 .
b11 0
b1111111111111011 6
b11 7

#1370001
0!
b11111111111111000000000000000000 %
b10 .
b10 0
b1111111111111100 5
b10 7

#1375001
1!
b11111111111111000000000000000000 -
b1111111111111100 6

#1380001
0!
b11111111111110100000000000000000 %
b11 .
b11 0
b1111111111111010 5
b11 7

#1385001
1!
b11 +
b11111111111110100000000000000000 -
b100 .
b100 0
b1111111111111010 6
b100 7

#1390001
0!
b11111111111110110000000000000000 %
b11 .
b11 0
b1111111111111011 5
b11 7

#1395001
1!
b11111111111110110000000000000000 -
b1111111111111011 6

#1400001
0!

#1405001
1!

#1410001
0!

#1415001
1!

#1420001
0!
b11111111111110100000000000000000 %
b1111111111111010 5

#1425001
1!
b11111111111110100000000000000000 -
b100 .
b100 0
b1111111111111010 6
b100 7

#1430001
0!
b11111111111110110000000000000000 %
b11 .
b11 0
b1111111111111011 5
b11 7

#1435001
1!
b11111111111110110000000000000000 -
b1111111111111011 6

#1440001
0!
b11111111111111000000000000000000 %
b10 .
b10 0
b1111111111111100 5
b10 7

#1445001
1!
b10 +
b11111111111111000000000000000000 -
b1111111111111100 6

#1450001
0!

#1455001
1!

#1460001
0!

#1465001
1!

#1470001
0!

#1475001
1!

#1480001
0!

#1485001
1!

#1490001
0!
b11111111111110110000000000000000 %
b1111111111111011 5

#1495001
1!
b11111111111110110000000000000000 -
b11 .
b11 0
b1111111111111011 6
b11 7

#1500001
0!

#1505001
1!
b11 +

#1510001
0!
b11111111111111000000000000000000 %
b10 .
b10 0
b1111111111111100 5
b10 7

#1515001
1!
b10 +
b11111111111111000000000000000000 -
b1111111111111100 6

#1520001
0!

#1525001
1!

#1530001
0!
b11111111111110110000000000000000 %
b1111111111111011 5

#1535001
1!
b11111111111110110000000000000000 -
b11 .
b11 0
b1111111111111011 6
b11 7

#1540001
0!

#1545001
1!
b11 +

#1550001
0!
b11111111111111000000000000000000 %
b10 .
b10 0
b1111111111111100 5
b10 7

#1555001
1!
b10 +
b11111111111111000000000000000000 -
b1111111111111100 6

#1560001
0!
b11111111111110100000000000000000 %
b11 .
b11 0
b1111111111111010 5
b11 7

#1565001
1!
b11 +
b11111111111110100000000000000000 -
b100 .
b100 0
b1111111111111010 6
b100 7

#1570001
0!

#1575001
1!
b100 +

#1580001
0!

#1585001
1!

#1590001
0!
b11111111111110110000000000000000 %
b11 .
b11 0
b1111111111111011 5
b11 7

#1595001
1!
b11 +
b11111111111110110000000000000000 -
b1111111111111011 6

#1600001
0!

#1605001
1!

#1610001
0!
b11111111111111000000000000000000 %
b10 .
b10 0
b1111111111111100 5
b10 7

#1615001
1!
b10 +
b11111111111111000000000000000000 -
b1111111111111100 6

#1620001
0!
b11111111111110110000000000000000 %
b1111111111111011 5

#1625001
1!
b11111111111110110000000000000000 -
b11 .
b11 0
b1111111111111011 6
b11 7

#1630001
0!
b11111111111110100000000000000000 %
b1111111111111010 5

#1635001
1!
b11 +
b11111111111110100000000000000000 -
b100 .
b100 0
b1111111111111010 6
b100 7

#1640001
0!

#1645001
1!
b100 +

#1650001
0!
b11111111111110110000000000000000 %
b11 .
b11 0
b1111111111111011 5
b11 7

#1655001
1!
b11 +
b11111111111110110000000000000000 -
b1111111111111011 6

#1660001
0!

#1665001
1!

#1670001
0!
b11111111111111000000000000000000 %
b10 .
b10 0
b1111111111111100 5
b10 7

#1675001
1!
b10 +
b11111111111111000000000000000000 -
b1111111111111100 6

#1680001
0!
b11111111111110110000000000000000 %
b1111111111111011 5

#1685001
1!
b11111111111110110000000000000000 -
b11 .
b11 0
b1111111111111011 6
b11 7

#1690001
0!

#1695001
1!
b11 +

#1700001
0!

#1705001
1!

#1710001
0!
b11111111111111000000000000000000 %
b10 .
b10 0
b1111111111111100 5
b10 7

#1715001
1!
b10 +
b11111111111111000000000000000000 -
b1111111111111100 6

#1720001
0!
b11111111111110110000000000000000 %
b1111111111111011 5

#1725001
1!
b11111111111110110000000000000000 -
b11 .
b11 0
b1111111111111011 6
b11 7

#1730001
0!

#1735001
1!
b11 +

#1740001
0!
b11111111111111000000000000000000 %
b10 .
b10 0
b1111111111111100 5
b10 7

#1745001
1!
b10 +
b11111111111111000000000000000000 -
b1111111111111100 6

#1750001
0!

#1755001
1!

#1760001
0!

#1765001
1!

#1770001
0!

#1775001
1!

#1780001
0!

#1785001
1!

#1790001
0!

#1795001
1!

#1800001
0!

#1805001
1!

#1810001
0!

#1815001
1!

#1820001
0!

#1825001
1!

#1830001
0!
b11111111111110100000000000000000 %
b11 .
b11 0
b1111111111111010 5
b11 7

#1835001
1!
b11 +
b11111111111110100000000000000000 -
b100 .
b100 0
b1111111111111010 6
b100 7

#1840001
0!

#1845001
1!
b100 +

#1850001
0!
b11111111111110110000000000000000 %
b11 .
b11 0
b1111111111111011 5
b11 7

#1855001
1!
b11 +
b11111111111110110000000000000000 -
b1111111111111011 6

#1860001
0!

#1865001
1!

#1870001
0!

#1875001
1!

#1880001
0!
b11111111111110100000000000000000 %
b1111111111111010 5

#1885001
1!
b11111111111110100000000000000000 -
b100 .
b100 0
b1111111111111010 6
b100 7

#1890001
0!
b11111111111110110000000000000000 %
b11 .
b11 0
b1111111111111011 5
b11 7

#1895001
1!
b11111111111110110000000000000000 -
b1111111111111011 6

#1900001
0!

#1905001
1!

#1910001
0!
b11111111111111000000000000000000 %
b10 .
b10 0
b1111111111111100 5
b10 7

#1915001
1!
b10 +
b11111111111111000000000000000000 -
b1111111111111100 6

#1920001
0!
b11111111111110110000000000000000 %
b1111111111111011 5

#1925001
1!
b11111111111110110000000000000000 -
b11 .
b11 0
b1111111111111011 6
b11 7

#1930001
0!

#1935001
1!
b11 +

#1940001
0!

#1945001
1!

#1950001
0!

#1955001
1!

#1960001
0!

#1965001
1!

#1970001
0!

#1975001
1!

#1980001
0!

#1985001
1!

#1990001
0!

#1995001
1!

#2000001
0!
b11111111111111000000000000000000 %
b10 .
b10 0
b1111111111111100 5
b10 7

#2005001
1!
b10 +
b11111111111111000000000000000000 -
b1111111111111100 6

#2010001
0!
b11111111111110110000000000000000 %
b1111111111111011 5

#2015001
1!
b11111111111110110000000000000000 -
b11 .
b11 0
b1111111111111011 6
b11 7

#2020001
0!

#2025001
1!
b11 +

#2030001
0!

#2035001
1!

#2040001
0!
b11111111111111000000000000000000 %
b10 .
b10 0
b1111111111111100 5
b10 7

#2045001
1!
b10 +
b11111111111111000000000000000000 -
b1111111111111100 6

#2050001
0!

#2055001
1!

#2060001
0!
b11111111111110110000000000000000 %
b1111111111111011 5

#2065001
1!
b11111111111110110000000000000000 -
b11 .
b11 0
b1111111111111011 6
b11 7

#2070001
0!
b11111111111111000000000000000000 %
b10 .
b10 0
b1111111111111100 5
b10 7

#2075001
1!
b11111111111111000000000000000000 -
b1111111111111100 6

#2080001
0!

#2085001
1!

#2090001
0!
b11111111111110110000000000000000 %
b1111111111111011 5

#2095001
1!
b11111111111110110000000000000000 -
b11 .
b11 0
b1111111111111011 6
b11 7

#2100001
0!

#2105001
1!
b11 +

#2110001
0!
b11111111111111000000000000000000 %
b10 .
b10 0
b1111111111111100 5
b10 7

#2115001
1!
b10 +
b11111111111111000000000000000000 -
b1111111111111100 6

#2120001
0!
b11111111111110110000000000000000 %
b1111111111111011 5

#2125001
1!
b11111111111110110000000000000000 -
b11 .
b11 0
b1111111111111011 6
b11 7

#2130001
0!
b11111111111110100000000000000000 %
b1111111111111010 5

#2135001
1!
b11 +
b11111111111110100000000000000000 -
b100 .
b100 0
b1111111111111010 6
b100 7

#2140001
0!
b11111111111110110000000000000000 %
b11 .
b11 0
b1111111111111011 5
b11 7

#2145001
1!
b11111111111110110000000000000000 -
b1111111111111011 6

#2150001
0!

#2155001
1!

#2160001
0!
b11111111111110100000000000000000 %
b1111111111111010 5

#2165001
1!
b11111111111110100000000000000000 -
b100 .
b100 0
b1111111111111010 6
b100 7

#2170001
0!
b11111111111110110000000000000000 %
b11 .
b11 0
b1111111111111011 5
b11 7

#2175001
1!
b11111111111110110000000000000000 -
b1111111111111011 6

#2180001
0!

#2185001
1!

#2190001
0!

#2195001
1!

#2200001
0!
b11111111111111000000000000000000 %
b10 .
b10 0
b1111111111111100 5
b10 7

#2205001
1!
b10 +
b11111111111111000000000000000000 -
b1111111111111100 6

#2210001
0!

#2215001
1!

#2220001
0!
b11111111111110110000000000000000 %
b1111111111111011 5

#2225001
1!
b11111111111110110000000000000000 -
b11 .
b11 0
b1111111111111011 6
b11 7

#2230001
0!

#2235001
1!
b11 +

#2240001
0!

#2245001
1!

#2250001
0!
b11111111111111000000000000000000 %
b10 .
b10 0
b1111111111111100 5
b10 7

#2255001
1!
b10 +
b11111111111111000000000000000000 -
b1111111111111100 6

#2260001
0!
b11111111111110110000000000000000 %
b1111111111111011 5

#2265001
1!
b11111111111110110000000000000000 -
b11 .
b11 0
b1111111111111011 6
b11 7

#2270001
0!

#2275001
1!
b11 +

#2280001
0!
b11111111111111000000000000000000 %
b10 .
b10 0
b1111111111111100 5
b10 7

#2285001
1!
b10 +
b11111111111111000000000000000000 -
b1111111111111100 6

#2290001
0!
b11111111111110110000000000000000 %
b1111111111111011 5

#2295001
1!
b11111111111110110000000000000000 -
b11 .
b11 0
b1111111111111011 6
b11 7

#2300001
0!
b11111111111111000000000000000000 %
b10 .
b10 0
b1111111111111100 5
b10 7

#2305001
1!
b11111111111111000000000000000000 -
b1111111111111100 6

#2310001
0!

#2315001
1!

#2320001
0!
b11111111111110110000000000000000 %
b1111111111111011 5

#2325001
1!
b11111111111110110000000000000000 -
b11 .
b11 0
b1111111111111011 6
b11 7

#2330001
0!

#2335001
1!
b11 +

#2340001
0!
b11111111111111000000000000000000 %
b10 .
b10 0
b1111111111111100 5
b10 7

#2345001
1!
b10 +
b11111111111111000000000000000000 -
b1111111111111100 6

#2350001
0!

#2355001
1!

#2360001
0!

#2365001
1!

#2370001
0!
b11111111111110110000000000000000 %
b1111111111111011 5

#2375001
1!
b11111111111110110000000000000000 -
b11 .
b11 0
b1111111111111011 6
b11 7

#2380001
0!
b11111111111111010000000000000000 %
b1 .
b1 0
b1111111111111101 5
b1 7

#2385001
1!
b1 +
b11111111111111010000000000000000 -
b1111111111111101 6

#2390001
0!

#2395001
1!

#2400001
0!
b11111111111111000000000000000000 %
b1111111111111100 5

#2405001
1!
b11111111111111000000000000000000 -
b10 .
b10 0
b1111111111111100 6
b10 7

#2410001
0!

#2415001
1!
b10 +

#2420001
0!
b11111111111110110000000000000000 %
b1111111111111011 5

#2425001
1!
b11111111111110110000000000000000 -
b11 .
b11 0
b1111111111111011 6
b11 7

#2430001
0!

#2435001
1!
b11 +

#2440001
0!

#2445001
1!

#2450001
0!

#2455001
1!

#2460001
0!
b11111111111110100000000000000000 %
b1111111111111010 5

#2465001
1!
b11111111111110100000000000000000 -
b100 .
b100 0
b1111111111111010 6
b100 7

#2470001
0!
b11111111111110110000000000000000 %
b11 .
b11 0
b1111111111111011 5
b11 7

#2475001
1!
b11111111111110110000000000000000 -
b1111111111111011 6

#2480001
0!
b11111111111111000000000000000000 %
b10 .
b10 0
b1111111111111100 5
b10 7

#2485001
1!
b10 +
b11111111111111000000000000000000 -
b1111111111111100 6

#2490001
0!
b11111111111110110000000000000000 %
b1111111111111011 5

#2495001
1!
b11111111111110110000000000000000 -
b11 .
b11 0
b1111111111111011 6
b11 7

#2500001
0!

#2505001
1!
b11 +

#2510001
0!
b11111111111111000000000000000000 %
b10 .
b10 0
b1111111111111100 5
b10 7

#2515001
1!
b10 +
b11111111111111000000000000000000 -
b1111111111111100 6

#2520001
0!

#2525001
1!

#2530001
0!

#2535001
1!

#2540001
0!
b11111111111110110000000000000000 %
b1111111111111011 5

#2545001
1!
b11111111111110110000000000000000 -
b11 .
b11 0
b1111111111111011 6
b11 7

#2550001
0!

#2555001
1!
b11 +

#2560001
0!

#2565001
1!

#2570001
0!
b11111111111110100000000000000000 %
b1111111111111010 5

#2575001
1!
b11111111111110100000000000000000 -
b100 .
b100 0
b1111111111111010 6
b100 7

#2580001
0!
b11111111111110110000000000000000 %
b11 .
b11 0
b1111111111111011 5
b11 7

#2585001
1!
b11111111111110110000000000000000 -
b1111111111111011 6

#2590001
0!

#2595001
1!

#2600001
0!
b11111111111110100000000000000000 %
b1111111111111010 5

#2605001
1!
b11111111111110100000000000000000 -
b100 .
b100 0
b1111111111111010 6
b100 7

#2610001
0!

#2615001
1!
b100 +

#2620001
0!
b11111111111111000000000000000000 %
b11 .
b11 0
b1111111111111100 5
b11 7

#2625001
1!
b11 +
b11111111111111000000000000000000 -
b10 .
b10 0
b1111111111111100 6
b10 7

#2630001
0!

#2635001
1!
b10 +

#2640001
0!
b11111111111110110000000000000000 %
b1111111111111011 5

#2645001
1!
b11111111111110110000000000000000 -
b11 .
b11 0
b1111111111111011 6
b11 7

#2650001
0!
b11111111111111000000000000000000 %
b10 .
b10 0
b1111111111111100 5
b10 7

#2655001
1!
b11111111111111000000000000000000 -
b1111111111111100 6

#2660001
0!
b11111111111110110000000000000000 %
b1111111111111011 5

#2665001
1!
b11111111111110110000000000000000 -
b11 .
b11 0
b1111111111111011 6
b11 7

#2670001
0!

#2675001
1!
b11 +

#2680001
0!

#2685001
1!

#2690001
0!
b11111111111111000000000000000000 %
b10 .
b10 0
b1111111111111100 5
b10 7

#2695001
1!
b10 +
b11111111111111000000000000000000 -
b1111111111111100 6

#2700001
0!

#2705001
1!

#2710001
0!

#2715001
1!

#2720001
0!
b11111111111110110000000000000000 %
b1111111111111011 5

#2725001
1!
b11111111111110110000000000000000 -
b11 .
b11 0
b1111111111111011 6
b11 7

#2730001
0!
b11111111111111000000000000000000 %
b10 .
b10 0
b1111111111111100 5
b10 7

#2735001
1!
b11111111111111000000000000000000 -
b1111111111111100 6

#2740001
0!

#2745001
1!

#2750001
0!
b11111111111110110000000000000000 %
b1111111111111011 5

#2755001
1!
b11111111111110110000000000000000 -
b11 .
b11 0
b1111111111111011 6
b11 7

#2760001
0!

#2765001
1!
b11 +

#2770001
0!

#2775001
1!

#2780001
0!
b11111111111111000000000000000000 %
b10 .
b10 0
b1111111111111100 5
b10 7

#2785001
1!
b10 +
b11111111111111000000000000000000 -
b1111111111111100 6

#2790001
0!

#2795001
1!

#2800001
0!

#2805001
1!

#2810001
0!
b11111111111110110000000000000000 %
b1111111111111011 5

#2815001
1!
b11111111111110110000000000000000 -
b11 .
b11 0
b1111111111111011 6
b11 7

#2820001
0!
b11111111111111000000000000000000 %
b10 .
b10 0
b1111111111111100 5
b10 7

#2825001
1!
b11111111111111000000000000000000 -
b1111111111111100 6

#2830001
0!
b11111111111111010000000000000000 %
b1 .
b1 0
b1111111111111101 5
b1 7

#2835001
1!
b1 +
b11111111111111010000000000000000 -
b1111111111111101 6

#2840001
0!
b11111111111111000000000000000000 %
b1111111111111100 5

#2845001
1!
b11111111111111000000000000000000 -
b10 .
b10 0
b1111111111111100 6
b10 7

#2850001
0!

#2855001
1!
b10 +

#2860001
0!
b11111111111110110000000000000000 %
b1111111111111011 5

#2865001
1!
b11111111111110110000000000000000 -
b11 .
b11 0
b1111111111111011 6
b11 7

#2870001
0!
b11111111111111000000000000000000 %
b10 .
b10 0
b1111111111111100 5
b10 7

#2875001
1!
b11111111111111000000000000000000 -
b1111111111111100 6

#2880001
0!
b11111111111111010000000000000000 %
b1 .
b1 0
b1111111111111101 5
b1 7

#2885001
1!
b1 +
b11111111111111010000000000000000 -
b1111111111111101 6

#2890001
0!

#2895001
1!

#2900001
0!
b11111111111110110000000000000000 %
b1111111111111011 5

#2905001
1!
b11111111111110110000000000000000 -
b11 .
b11 0
b1111111111111011 6
b11 7

#2910001
0!
b11111111111111000000000000000000 %
b10 .
b10 0
b1111111111111100 5
b10 7

