sim/sim_build/demo_shim.vcd
$date
   Tue Nov 25 20:37:42 2025
$end

$version
  2025.1.0
  $dumpfile ("/home/yabi/projs/radioHead/sim/sim_build/demo_shim.fst") 
$end

$timescale
  1ps
$end

$scope module demo_shim $end
$var wire 1 ! s00_axis_aclk $end
$var wire 1 " s00_axis_aresetn $end
$var wire 1 # s00_axis_tlast $end
$var wire 1 $ s00_axis_tvalid $end
$var wire 32 % s00_axis_tdata [31:0] $end
$var wire 4 & s00_axis_tstrb [3:0] $end
$var reg 1 ' s00_axis_tready $end
$var wire 1 ( m00_axis_tready $end
$var reg 1 ) m00_axis_tvalid $end
$var reg 1 * m00_axis_tlast $end
$var reg 32 + m00_axis_tdata [31:0] $end
$var reg 4 , m00_axis_tstrb [3:0] $end
$var reg 1 - demod_to_cordic_ready $end
$var reg 1 . demod_to_cordic_valid $end
$var reg 1 / demod_to_cordic_last $end
$var reg 64 0 demod_to_cordic_data [63:0] $end
$var reg 64 1 demod_to_cordic_data_shifted [63:0] $end
$var reg 8 2 demod_to_cordic_strb [7:0] $end
$scope module demod $end
$var wire 1 ! s00_axis_aclk $end
$var wire 1 " s00_axis_aresetn $end
$var wire 1 # s00_axis_tlast $end
$var wire 1 $ s00_axis_tvalid $end
$var wire 32 % s00_axis_tdata [31:0] $end
$var wire 4 & s00_axis_tstrb [3:0] $end
$var reg 1 ' s00_axis_tready $end
$var wire 1 3 m00_axis_tready $end
$var reg 1 . m00_axis_tvalid $end
$var reg 1 / m00_axis_tlast $end
$var reg 64 0 m00_axis_tdata [63:0] $end
$var reg 8 2 m00_axis_tstrb [7:0] $end
$var reg 32 4 val_reg [31:0] $end
$var reg 64 5 alpha [63:0] $end
$var reg 32 6 ac [31:0] $end
$var reg 32 7 bd [31:0] $end
$var reg 32 8 bc [31:0] $end
$var reg 32 9 ad [31:0] $end
$var reg 16 : cur_real [15:0] $end
$var reg 16 ; prev_real [15:0] $end
$var reg 16 < cur_imag [15:0] $end
$var reg 16 = prev_imag [15:0] $end
$var reg 32 > final_real [31:0] $end
$var reg 32 ? final_imag [31:0] $end
$upscope $end
$scope module angle_time $end
$var wire 1 ! s00_axis_aclk $end
$var wire 1 " s00_axis_aresetn $end
$var wire 1 @ s00_axis_tlast $end
$var wire 1 A s00_axis_tvalid $end
$var wire 32 B s00_axis_tdata [31:0] $end
$var wire 4 C s00_axis_tstrb [3:0] $end
$var reg 1 - s00_axis_tready $end
$var wire 1 ( m00_axis_tready $end
$var reg 1 ) m00_axis_tvalid $end
$var reg 1 * m00_axis_tlast $end
$var reg 32 + m00_axis_tdata [31:0] $end
$var reg 4 , m00_axis_tstrb [3:0] $end
$var reg 16 D pre_x_i_0 [15:0] $end
$var reg 16 E pre_y_i_0 [15:0] $end
$var reg 16 F x_i_0 [15:0] $end
$var reg 16 G y_i_0 [15:0] $end
$var reg 16 H z_i_0 [15:0] $end
$var reg 1 I flips_i_0 $end
$var reg 16 J mag [15:0] $end
$var reg 16 K rotate_angle [15:0] $end
$var reg 16 L regular_angle [15:0] $end
$scope function rnd2zerodiv $end
$var reg 33 M rnd2zerodiv [32:0] $end
$var reg 33 N x [32:0] $end
$var reg 4 O i [3:0] $end
$var reg 1 P sign $end
$upscope $end
$upscope $end
$upscope $end
$enddefinitions $end

#0
$dumpvars
1!
0"
0#
0$
b0 %
b1111 &
0'
0(
x)
x*
bx +
b1111 ,
0-
0.
0/
b0 0
b0 1
b11111111 2
03
b0 4
b0 5
b0 6
b0 7
b0 8
b0 9
b0 :
b0 ;
b0 <
b0 =
b0 >
b0 ?
0@
0A
b0 B
b1111 C
b0 D
b0 E
b0 F
b0 G
b0 H
1I
bx J
bx K
bx L
bx M
bx N
bx O
xP
$end

#5000
0!

#10000
1!
1"
1'
1(
1-
13

#15000
0!
1$
b1001100000 %
b1001100000 :

#15001
1!
0"
0$
b0 %
0'
0(
0-
03
b0 :

#20001
0!

#25001
1!
1"
1'
1(
1-
13

#30001
0!
1$

#35001
1!
1.
1A
b0xxxxxxxxxxxxxxxxxx M
b0xxxxxxxxxxxxxxxxxx N
b1111 O
0P

#40001
0!
b11111111111111110000000000000000 %
b1111111111111111 <

#45001
1!
b11111111111111110000000000000000 4
b1111111111111111 =
b0xxxxxxxxxxxxxxxxxx M
b0xxxxxxxxxxxxxxxxxx N
b1111 O

#50001
0!
b11111111111111100000000000000000 %
b1111111111111110 <

#55001
1!
b11111111111111100000000000000000 4
b1111111111111110 =
b0xxxxxxxxxxxxxxxxxx M
b0xxxxxxxxxxxxxxxxxx N
b1111 O

#60001
0!
b11111111111111000000000000000000 %
b1 5
b1 7
b1111111111111100 <
b1 >

#65001
1!
b1 0
b100000000 1
b11111111111111000000000000000000 4
b10 5
b10 7
b1111111111111100 =
b10 >
b0xxxxxxxxxxxxxxxxxx M
b0xxxxxxxxxxxxxxxxxx N
b1111 O

#70001
0!
b11111111111110110000000000000000 %
b1111111111111011 <

#75001
1!
b10 0
b1000000000 1
b11111111111110110000000000000000 4
b11 5
b11 7
b1111111111111011 =
b11 >
b0xxxxxxxxxxxxxxxxxx M
b0xxxxxxxxxxxxxxxxxx N
b1111 O

#80001
0!

#85001
1!
b11 0
b1100000000 1
b0xxxxxxxxxxxxxxxxxx M
b0xxxxxxxxxxxxxxxxxx N
b1111 O

#90001
0!

#95001
1!
b0xxxxxxxxxxxxxxxxxx M
b0xxxxxxxxxxxxxxxxxx N
b1111 O

#100001
0!
b11111111111111000000000000000000 %
b10 5
b10 7
b1111111111111100 <
b10 >

#105001
1!
b10 0
b1000000000 1
b11111111111111000000000000000000 4
b1111111111111100 =
b0xxxxxxxxxxxxxxxxxx M
b0xxxxxxxxxxxxxxxxxx N
b1111 O

#110001
0!
b11111111111110110000000000000000 %
b1111111111111011 <

#115001
1!
b11111111111110110000000000000000 4
b11 5
b11 7
b1111111111111011 =
b11 >
b0xxxxxxxxxxxxxxxxxx M
b0xxxxxxxxxxxxxxxxxx N
b1111 O

#120001
0!

#125001
1!
b11 0
b1100000000 1
b0xxxxxxxxxxxxxxxxxx M
b0xxxxxxxxxxxxxxxxxx N
b1111 O

#130001
0!

#135001
1!
b0xxxxxxxxxxxxxxxxxx M
b0xxxxxxxxxxxxxxxxxx N
b1111 O

#140001
0!

#145001
1!
b0xxxxxxxxxxxxxxxxxx M
b0xxxxxxxxxxxxxxxxxx N
b1111 O

#150001
0!

#155001
1!
b0xxxxxxxxxxxxxxxxxx M
b0xxxxxxxxxxxxxxxxxx N
b1111 O

#160001
0!
b11111111111111000000000000000000 %
b10 5
b10 7
b1111111111111100 <
b10 >

#165001
1!
b10 0
b1000000000 1
b11111111111111000000000000000000 4
b1111111111111100 =
b0xxxxxxxxxxxxxxxxxx M
b0xxxxxxxxxxxxxxxxxx N
b1111 O

#170001
0!
b11111111111111010000000000000000 %
b1 5
b1 7
b1111111111111101 <
b1 >

#175001
1!
b1 0
b100000000 1
b11111111111111010000000000000000 4
b1111111111111101 =
b0xxxxxxxxxxxxxxxxxx M
b0xxxxxxxxxxxxxxxxxx N
b1111 O

#180001
0!

#185001
1!
0)
0*
b11000110111111110000000000000000 +
b0 J
b1100011011111111 K
b100011011111111 L
b0 M
b0 N
b1111 O

#190001
0!
b11111111111111000000000000000000 %
b1111111111111100 <

#195001
1!
b11111111111111000000000000000000 4
b10 5
b10 7
b1111111111111100 =
b10 >
b1111 O

#200001
0!
b11111111111110110000000000000000 %
b1111111111111011 <

#205001
1!
1)
b10 0
b1000000000 1
b11111111111110110000000000000000 4
b11 5
b11 7
b1111111111111011 =
b11 >
b1111 O

#210001
0!
b11111111111111000000000000000000 %
b10 5
b10 7
b1111111111111100 <
b10 >

#215001
1!
b11111111111111000000000000000000 4
b1111111111111100 =
b1111 O

#220001
0!
b11111111111110110000000000000000 %
b1111111111111011 <

#225001
1!
b11111111111110110000000000000000 4
b11 5
b11 7
b1111111111111011 =
b11 >
b1111 O

#230001
0!
b11111111111111000000000000000000 %
b10 5
b10 7
b1111111111111100 <
b10 >

#235001
1!
b11111111111111000000000000000000 4
b1111111111111100 =
b1111 O

#240001
0!
b11111111111111010000000000000000 %
b1 5
b1 7
b1111111111111101 <
b1 >

#245001
1!
b1 0
b100000000 1
b11111111111111010000000000000000 4
b1111111111111101 =
b1111 O

#250001
0!
b11111111111111000000000000000000 %
b1111111111111100 <

#255001
1!
b11111111111111000000000000000000 4
b10 5
b10 7
b1111111111111100 =
b10 >
b1111 O

#260001
0!
b11111111111111010000000000000000 %
b1 5
b1 7
b1111111111111101 <
b1 >

#265001
1!
b11111111111111010000000000000000 4
b1111111111111101 =
b1111 O

#270001
0!
b11111111111111000000000000000000 %
b1111111111111100 <

#275001
1!
b11111111111111000000000000000000 4
b10 5
b10 7
b1111111111111100 =
b10 >
b1111 O

#280001
0!
b11111111111111010000000000000000 %
b1 5
b1 7
b1111111111111101 <
b1 >

#285001
1!
b11111111111111010000000000000000 4
b1111111111111101 =
b1111 O

#290001
0!
b11111111111111000000000000000000 %
b1111111111111100 <

#295001
1!
b11111111111111000000000000000000 4
b10 5
b10 7
b1111111111111100 =
b10 >
b1111 O

#300001
0!

#305001
1!
b10 0
b1000000000 1
b1111 O

#310001
0!

#315001
1!
b1111 O

#320001
0!

#325001
1!
b1111 O

#330001
0!
b11111111111111010000000000000000 %
b1 5
b1 7
b1111111111111101 <
b1 >

#335001
1!
b1 0
b100000000 1
b11111111111111010000000000000000 4
b1111111111111101 =
b1111 O

#340001
0!
b11111111111111000000000000000000 %
b1111111111111100 <

#345001
1!
b11111111111111000000000000000000 4
b10 5
b10 7
b1111111111111100 =
b10 >
b1111 O

#350001
0!

#355001
1!
b10 0
b1000000000 1
b1111 O

#360001
0!

#365001
1!
b1111 O

#370001
0!
b11111111111111010000000000000000 %
b1 5
b1 7
b1111111111111101 <
b1 >

#375001
1!
b1 0
b100000000 1
b11111111111111010000000000000000 4
b1111111111111101 =
b1111 O

#380001
0!
b11111111111111000000000000000000 %
b1111111111111100 <

#385001
1!
b11111111111111000000000000000000 4
b10 5
b10 7
b1111111111111100 =
b10 >
b1111 O

#390001
0!
b11111111111110110000000000000000 %
b1111111111111011 <

#395001
1!
b10 0
b1000000000 1
b11111111111110110000000000000000 4
b11 5
b11 7
b1111111111111011 =
b11 >
b1111 O

#400001
0!

#405001
1!
b11 0
b1100000000 1
b1111 O

#410001
0!
b11111111111111000000000000000000 %
b10 5
b10 7
b1111111111111100 <
b10 >

#415001
1!
b10 0
b1000000000 1
b11111111111111000000000000000000 4
b1111111111111100 =
b1111 O

#420001
0!

#425001
1!
b1111 O

#430001
0!
b11111111111110110000000000000000 %
b1111111111111011 <

#435001
1!
b11111111111110110000000000000000 4
b11 5
b11 7
b1111111111111011 =
b11 >
b1111 O

#440001
0!

#445001
1!
b11 0
b1100000000 1
b1111 O

#450001
0!

#455001
1!
b1111 O

#460001
0!
b11111111111111010000000000000000 %
b1 5
b1 7
b1111111111111101 <
b1 >

#465001
1!
b1 0
b100000000 1
b11111111111111010000000000000000 4
b1111111111111101 =
b1111 O

#470001
0!
b11111111111111000000000000000000 %
b1111111111111100 <

#475001
1!
b11111111111111000000000000000000 4
b10 5
b10 7
b1111111111111100 =
b10 >
b1111 O

#480001
0!

#485001
1!
b10 0
b1000000000 1
b1111 O

#490001
0!

#495001
1!
b1111 O

#500001
0!
b11111111111111010000000000000000 %
b1 5
b1 7
b1111111111111101 <
b1 >

#505001
1!
b1 0
b100000000 1
b11111111111111010000000000000000 4
b1111111111111101 =
b1111 O

#510001
0!

#515001
1!
b1111 O

#520001
0!

#525001
1!
b1111 O

#530001
0!
b11111111111111000000000000000000 %
b1111111111111100 <

#535001
1!
b11111111111111000000000000000000 4
b10 5
b10 7
b1111111111111100 =
b10 >
b1111 O

#540001
0!
b11111111111111010000000000000000 %
b1 5
b1 7
b1111111111111101 <
b1 >

#545001
1!
b11111111111111010000000000000000 4
b1111111111111101 =
b1111 O

#550001
0!

#555001
1!
b1111 O

#560001
0!
b11111111111111000000000000000000 %
b1111111111111100 <

#565001
1!
b11111111111111000000000000000000 4
b10 5
b10 7
b1111111111111100 =
b10 >
b1111 O

#570001
0!

#575001
1!
b10 0
b1000000000 1
b1111 O

#580001
0!
b11111111111110110000000000000000 %
b1111111111111011 <

#585001
1!
b11111111111110110000000000000000 4
b11 5
b11 7
b1111111111111011 =
b11 >
b1111 O

#590001
0!

#595001
1!
b11 0
b1100000000 1
b1111 O

#600001
0!

#605001
1!
b1111 O

#610001
0!

#615001
1!
b1111 O

#620001
0!
b11111111111111000000000000000000 %
b10 5
b10 7
b1111111111111100 <
b10 >

#625001
1!
b10 0
b1000000000 1
b11111111111111000000000000000000 4
b1111111111111100 =
b1111 O

#630001
0!
b11111111111110110000000000000000 %
b1111111111111011 <

#635001
1!
b11111111111110110000000000000000 4
b11 5
b11 7
b1111111111111011 =
b11 >
b1111 O

#640001
0!
b11111111111110100000000000000000 %
b1111111111111010 <

#645001
1!
b11 0
b1100000000 1
b11111111111110100000000000000000 4
b100 5
b100 7
b1111111111111010 =
b100 >
b1111 O

#650001
0!
b11111111111110110000000000000000 %
b11 5
b11 7
b1111111111111011 <
b11 >

#655001
1!
b11111111111110110000000000000000 4
b1111111111111011 =
b1111 O

#660001
0!
b11111111111111000000000000000000 %
b10 5
b10 7
b1111111111111100 <
b10 >

#665001
1!
b10 0
b1000000000 1
b11111111111111000000000000000000 4
b1111111111111100 =
b1111 O

#670001
0!

#675001
1!
b1111 O

#680001
0!
b11111111111110110000000000000000 %
b1111111111111011 <

#685001
1!
b11111111111110110000000000000000 4
b11 5
b11 7
b1111111111111011 =
b11 >
b1111 O

#690001
0!
b11111111111111000000000000000000 %
b10 5
b10 7
b1111111111111100 <
b10 >

#695001
1!
b11111111111111000000000000000000 4
b1111111111111100 =
b1111 O

#700001
0!

#705001
1!
b1111 O

#710001
0!
b11111111111110110000000000000000 %
b1111111111111011 <

#715001
1!
b11111111111110110000000000000000 4
b11 5
b11 7
b1111111111111011 =
b11 >
b1111 O

#720001
0!
b11111111111111000000000000000000 %
b10 5
b10 7
b1111111111111100 <
b10 >

#725001
1!
b11111111111111000000000000000000 4
b1111111111111100 =
b1111 O

#730001
0!

#735001
1!
b1111 O

#740001
0!

#745001
1!
b1111 O

#750001
0!

#755001
1!
b1111 O

#760001
0!

#765001
1!
b1111 O

#770001
0!

#775001
1!
b1111 O

#780001
0!

#785001
1!
b1111 O

#790001
0!

#795001
1!
b1111 O

#800001
0!

#805001
1!
b1111 O

#810001
0!
b11111111111110100000000000000000 %
b11 5
b11 7
b1111111111111010 <
b11 >

#815001
1!
b11 0
b1100000000 1
b11111111111110100000000000000000 4
b100 5
b100 7
b1111111111111010 =
b100 >
b1111 O

#820001
0!
b11111111111110110000000000000000 %
b11 5
b11 7
b1111111111111011 <
b11 >

#825001
1!
b11111111111110110000000000000000 4
b1111111111111011 =
b1111 O

#830001
0!

#835001
1!
b1111 O

#840001
0!

#845001
1!
b1111 O

#850001
0!

#855001
1!
b1111 O

#860001
0!

#865001
1!
b1111 O

#870001
0!
b11111111111111010000000000000000 %
b1 5
b1 7
b1111111111111101 <
b1 >

#875001
1!
b1 0
b100000000 1
b11111111111111010000000000000000 4
b1111111111111101 =
b1111 O

#880001
0!
b11111111111111000000000000000000 %
b1111111111111100 <

#885001
1!
b11111111111111000000000000000000 4
b10 5
b10 7
b1111111111111100 =
b10 >
b1111 O

#890001
0!
b11111111111110110000000000000000 %
b1111111111111011 <

#895001
1!
b10 0
b1000000000 1
b11111111111110110000000000000000 4
b11 5
b11 7
b1111111111111011 =
b11 >
b1111 O

#900001
0!

#905001
1!
b11 0
b1100000000 1
b1111 O

#910001
0!
b11111111111111000000000000000000 %
b10 5
b10 7
b1111111111111100 <
b10 >

#915001
1!
b10 0
b1000000000 1
b11111111111111000000000000000000 4
b1111111111111100 =
b1111 O

#920001
0!

#925001
1!
b1111 O

#930001
0!

#935001
1!
b1111 O

#940001
0!
b11111111111110110000000000000000 %
b1111111111111011 <

#945001
1!
b11111111111110110000000000000000 4
b11 5
b11 7
b1111111111111011 =
b11 >
b1111 O

#950001
0!

#955001
1!
b11 0
b1100000000 1
b1111 O

#960001
0!
b11111111111111000000000000000000 %
b10 5
b10 7
b1111111111111100 <
b10 >

#965001
1!
b10 0
b1000000000 1
b11111111111111000000000000000000 4
b1111111111111100 =
b1111 O

#970001
0!

#975001
1!
b1111 O

#980001
0!
b11111111111110110000000000000000 %
b1111111111111011 <

#985001
1!
b11111111111110110000000000000000 4
b11 5
b11 7
b1111111111111011 =
b11 >
b1111 O

#990001
0!
b11111111111111000000000000000000 %
b10 5
b10 7
b1111111111111100 <
b10 >

#995001
1!
b11111111111111000000000000000000 4
b1111111111111100 =
b1111 O

#1000001
0!

#1005001
1!
b1111 O

#1010001
0!

#1015001
1!
b1111 O

#1020001
0!

#1025001
1!
b1111 O

#1030001
0!

#1035001
1!
b1111 O

#1040001
0!

#1045001
1!
b1111 O

#1050001
0!

#1055001
1!
b1111 O

#1060001
0!
b11111111111110110000000000000000 %
b1111111111111011 <

#1065001
1!
b11111111111110110000000000000000 4
b11 5
b11 7
b1111111111111011 =
b11 >
b1111 O

#1070001
0!
b11111111111111000000000000000000 %
b10 5
b10 7
b1111111111111100 <
b10 >

#1075001
1!
b11111111111111000000000000000000 4
b1111111111111100 =
b1111 O

#1080001
0!

#1085001
1!
b1111 O

#1090001
0!

#1095001
1!
b1111 O

#1100001
0!

#1105001
1!
b1111 O

#1110001
0!
b11111111111110110000000000000000 %
b1111111111111011 <

#1115001
1!
b11111111111110110000000000000000 4
b11 5
b11 7
b1111111111111011 =
b11 >
b1111 O

#1120001
0!

#1125001
1!
b11 0
b1100000000 1
b1111 O

#1130001
0!

#1135001
1!
b1111 O

#1140001
0!

#1145001
1!
b1111 O

#1150001
0!

#1155001
1!
b1111 O

#1160001
0!
b11111111111111000000000000000000 %
b10 5
b10 7
b1111111111111100 <
b10 >

#1165001
1!
b10 0
b1000000000 1
b11111111111111000000000000000000 4
b1111111111111100 =
b1111 O

#1170001
0!

#1175001
1!
b1111 O

#1180001
0!

#1185001
1!
b1111 O

#1190001
0!

#1195001
1!
b1111 O

#1200001
0!
b11111111111110110000000000000000 %
b1111111111111011 <

#1205001
1!
b11111111111110110000000000000000 4
b11 5
b11 7
b1111111111111011 =
b11 >
b1111 O

#1210001
0!

#1215001
1!
b11 0
b1100000000 1
b1111 O

#1220001
0!

#1225001
1!
b1111 O

#1230001
0!

#1235001
1!
b1111 O

#1240001
0!

#1245001
1!
b1111 O

#1250001
0!

#1255001
1!
b1111 O

#1260001
0!

#1265001
1!
b1111 O

#1270001
0!

#1275001
1!
b1111 O

#1280001
0!

#1285001
1!
b1111 O

#1290001
0!

#1295001
1!
b1111 O

#1300001
0!

#1305001
1!
b1111 O

#1310001
0!
b11111111111111000000000000000000 %
b10 5
b10 7
b1111111111111100 <
b10 >

#1315001
1!
b10 0
b1000000000 1
b11111111111111000000000000000000 4
b1111111111111100 =
b1111 O

#1320001
0!
b11111111111111100000000000000000 %
b1 5
b1 7
b1111111111111110 <
b1 >

#1325001
1!
b1 0
b100000000 1
b11111111111111100000000000000000 4
b0 5
b0 7
b1111111111111110 =
b0 >
b1111 O

#1330001
0!

#1335001
1!
b0 0
b0 1
b1111 O

#1340001
0!
b11111111111111010000000000000000 %
b1111111111111101 <

#1345001
1!
b11111111111111010000000000000000 4
b1 5
b1 7
b1111111111111101 =
b1 >
b1111 O

#1350001
0!
b11111111111111000000000000000000 %
b1111111111111100 <

#1355001
1!
b1 0
b100000000 1
b11111111111111000000000000000000 4
b10 5
b10 7
b1111111111111100 =
b10 >
b1111 O

#1360001
0!
b11111111111110110000000000000000 %
b1111111111111011 <

#1365001
1!
b10 0
b1000000000 1
b11111111111110110000000000000000 4
b11 5
b11 7
b1111111111111011 =
b11 >
b1111 O

#1370001
0!
b11111111111111000000000000000000 %
b10 5
b10 7
b1111111111111100 <
b10 >

#1375001
1!
b11111111111111000000000000000000 4
b1111111111111100 =
b1111 O

#1380001
0!
b11111111111110100000000000000000 %
b11 5
b11 7
b1111111111111010 <
b11 >

#1385001
1!
b11 0
b1100000000 1
b11111111111110100000000000000000 4
b100 5
b100 7
b1111111111111010 =
b100 >
b1111 O

#1390001
0!
b11111111111110110000000000000000 %
b11 5
b11 7
b1111111111111011 <
b11 >

#1395001
1!
b11111111111110110000000000000000 4
b1111111111111011 =
b1111 O

#1400001
0!

#1405001
1!
b1111 O

#1410001
0!

#1415001
1!
b1111 O

#1420001
0!
b11111111111110100000000000000000 %
b1111111111111010 <

#1425001
1!
b11111111111110100000000000000000 4
b100 5
b100 7
b1111111111111010 =
b100 >
b1111 O

#1430001
0!
b11111111111110110000000000000000 %
b11 5
b11 7
b1111111111111011 <
b11 >

#1435001
1!
b11111111111110110000000000000000 4
b1111111111111011 =
b1111 O

#1440001
0!
b11111111111111000000000000000000 %
b10 5
b10 7
b1111111111111100 <
b10 >

#1445001
1!
b10 0
b1000000000 1
b11111111111111000000000000000000 4
b1111111111111100 =
b1111 O

#1450001
0!

#1455001
1!
b1111 O

#1460001
0!

#1465001
1!
b1111 O

#1470001
0!

#1475001
1!
b1111 O

#1480001
0!

#1485001
1!
b1111 O

#1490001
0!
b11111111111110110000000000000000 %
b1111111111111011 <

#1495001
1!
b11111111111110110000000000000000 4
b11 5
b11 7
b1111111111111011 =
b11 >
b1111 O

#1500001
0!

#1505001
1!
b11 0
b1100000000 1
b1111 O

#1510001
0!
b11111111111111000000000000000000 %
b10 5
b10 7
b1111111111111100 <
b10 >

#1515001
1!
b10 0
b1000000000 1
b11111111111111000000000000000000 4
b1111111111111100 =
b1111 O

#1520001
0!

#1525001
1!
b1111 O

#1530001
0!
b11111111111110110000000000000000 %
b1111111111111011 <

#1535001
1!
b11111111111110110000000000000000 4
b11 5
b11 7
b1111111111111011 =
b11 >
b1111 O

#1540001
0!

#1545001
1!
b11 0
b1100000000 1
b1111 O

#1550001
0!
b11111111111111000000000000000000 %
b10 5
b10 7
b1111111111111100 <
b10 >

#1555001
1!
b10 0
b1000000000 1
b11111111111111000000000000000000 4
b1111111111111100 =
b1111 O

#1560001
0!
b11111111111110100000000000000000 %
b11 5
b11 7
b1111111111111010 <
b11 >

#1565001
1!
b11 0
b1100000000 1
b11111111111110100000000000000000 4
b100 5
b100 7
b1111111111111010 =
b100 >
b1111 O

#1570001
0!

#1575001
1!
b100 0
b10000000000 1
b1111 O

#1580001
0!

#1585001
1!
b1111 O

#1590001
0!
b11111111111110110000000000000000 %
b11 5
b11 7
b1111111111111011 <
b11 >

#1595001
1!
b11 0
b1100000000 1
b11111111111110110000000000000000 4
b1111111111111011 =
b1111 O

#1600001
0!

#1605001
1!
b1111 O

#1610001
0!
b11111111111111000000000000000000 %
b10 5
b10 7
b1111111111111100 <
b10 >

#1615001
1!
b10 0
b1000000000 1
b11111111111111000000000000000000 4
b1111111111111100 =
b1111 O

#1620001
0!
b11111111111110110000000000000000 %
b1111111111111011 <

#1625001
1!
b11111111111110110000000000000000 4
b11 5
b11 7
b1111111111111011 =
b11 >
b1111 O

#1630001
0!
b11111111111110100000000000000000 %
b1111111111111010 <

#1635001
1!
b11 0
b1100000000 1
b11111111111110100000000000000000 4
b100 5
b100 7
b1111111111111010 =
b100 >
b1111 O

#1640001
0!

#1645001
1!
b100 0
b10000000000 1
b1111 O

#1650001
0!
b11111111111110110000000000000000 %
b11 5
b11 7
b1111111111111011 <
b11 >

#1655001
1!
b11 0
b1100000000 1
b11111111111110110000000000000000 4
b1111111111111011 =
b1111 O

#1660001
0!

#1665001
1!
b1111 O

#1670001
0!
b11111111111111000000000000000000 %
b10 5
b10 7
b1111111111111100 <
b10 >

#1675001
1!
b10 0
b1000000000 1
b11111111111111000000000000000000 4
b1111111111111100 =
b1111 O

#1680001
0!
b11111111111110110000000000000000 %
b1111111111111011 <

#1685001
1!
b11111111111110110000000000000000 4
b11 5
b11 7
b1111111111111011 =
b11 >
b1111 O

#1690001
0!

#1695001
1!
b11 0
b1100000000 1
b1111 O

#1700001
0!

#1705001
1!
b1111 O

#1710001
0!
b11111111111111000000000000000000 %
b10 5
b10 7
b1111111111111100 <
b10 >

#1715001
1!
b10 0
b1000000000 1
b11111111111111000000000000000000 4
b1111111111111100 =
b1111 O

#1720001
0!
b11111111111110110000000000000000 %
b1111111111111011 <

#1725001
1!
b11111111111110110000000000000000 4
b11 5
b11 7
b1111111111111011 =
b11 >
b1111 O

#1730001
0!

#1735001
1!
b11 0
b1100000000 1
b1111 O

#1740001
0!
b11111111111111000000000000000000 %
b10 5
b10 7
b1111111111111100 <
b10 >

#1745001
1!
b10 0
b1000000000 1
b11111111111111000000000000000000 4
b1111111111111100 =
b1111 O

#1750001
0!

#1755001
1!
b1111 O

#1760001
0!

#1765001
1!
b1111 O

#1770001
0!

#1775001
1!
b1111 O

#1780001
0!

#1785001
1!
b1111 O

#1790001
0!

#1795001
1!
b1111 O

#1800001
0!

#1805001
1!
b1111 O

#1810001
0!

#1815001
1!
b1111 O

#1820001
0!

#1825001
1!
b1111 O

#1830001
0!
b11111111111110100000000000000000 %
b11 5
b11 7
b1111111111111010 <
b11 >

#1835001
1!
b11 0
b1100000000 1
b11111111111110100000000000000000 4
b100 5
b100 7
b1111111111111010 =
b100 >
b1111 O

#1840001
0!

#1845001
1!
b100 0
b10000000000 1
b1111 O

#1850001
0!
b11111111111110110000000000000000 %
b11 5
b11 7
b1111111111111011 <
b11 >

#1855001
1!
b11 0
b1100000000 1
b11111111111110110000000000000000 4
b1111111111111011 =
b1111 O

#1860001
0!

#1865001
1!
b1111 O

#1870001
0!

#1875001
1!
b1111 O

#1880001
0!
b11111111111110100000000000000000 %
b1111111111111010 <

#1885001
1!
b11111111111110100000000000000000 4
b100 5
b100 7
b1111111111111010 =
b100 >
b1111 O

#1890001
0!
b11111111111110110000000000000000 %
b11 5
b11 7
b1111111111111011 <
b11 >

#1895001
1!
b11111111111110110000000000000000 4
b1111111111111011 =
b1111 O

#1900001
0!

#1905001
1!
b1111 O

#1910001
0!
b11111111111111000000000000000000 %
b10 5
b10 7
b1111111111111100 <
b10 >

#1915001
1!
b10 0
b1000000000 1
b11111111111111000000000000000000 4
b1111111111111100 =
b1111 O

#1920001
0!
b11111111111110110000000000000000 %
b1111111111111011 <

#1925001
1!
b11111111111110110000000000000000 4
b11 5
b11 7
b1111111111111011 =
b11 >
b1111 O

#1930001
0!

#1935001
1!
b11 0
b1100000000 1
b1111 O

#1940001
0!

#1945001
1!
b1111 O

#1950001
0!

#1955001
1!
b1111 O

#1960001
0!

#1965001
1!
b1111 O

#1970001
0!

#1975001
1!
b1111 O

#1980001
0!

#1985001
1!
b1111 O

#1990001
0!

#1995001
1!
b1111 O

#2000001
0!
b11111111111111000000000000000000 %
b10 5
b10 7
b1111111111111100 <
b10 >

#2005001
1!
b10 0
b1000000000 1
b11111111111111000000000000000000 4
b1111111111111100 =
b1111 O

#2010001
0!
b11111111111110110000000000000000 %
b1111111111111011 <

#2015001
1!
b11111111111110110000000000000000 4
b11 5
b11 7
b1111111111111011 =
b11 >
b1111 O

#2020001
0!

#2025001
1!
b11 0
b1100000000 1
b1111 O

#2030001
0!

#2035001
1!
b1111 O

#2040001
0!
b11111111111111000000000000000000 %
b10 5
b10 7
b1111111111111100 <
b10 >

#2045001
1!
b10 0
b1000000000 1
b11111111111111000000000000000000 4
b1111111111111100 =
b1111 O

#2050001
0!

#2055001
1!
b1111 O

#2060001
0!
b11111111111110110000000000000000 %
b1111111111111011 <

#2065001
1!
b11111111111110110000000000000000 4
b11 5
b11 7
b1111111111111011 =
b11 >
b1111 O

#2070001
0!
b11111111111111000000000000000000 %
b10 5
b10 7
b1111111111111100 <
b10 >

#2075001
1!
b11111111111111000000000000000000 4
b1111111111111100 =
b1111 O

#2080001
0!

#2085001
1!
b1111 O

#2090001
0!
b11111111111110110000000000000000 %
b1111111111111011 <

#2095001
1!
b11111111111110110000000000000000 4
b11 5
b11 7
b1111111111111011 =
b11 >
b1111 O

#2100001
0!

#2105001
1!
b11 0
b1100000000 1
b1111 O

#2110001
0!
b11111111111111000000000000000000 %
b10 5
b10 7
b1111111111111100 <
b10 >

#2115001
1!
b10 0
b1000000000 1
b11111111111111000000000000000000 4
b1111111111111100 =
b1111 O

#2120001
0!
b11111111111110110000000000000000 %
b1111111111111011 <

#2125001
1!
b11111111111110110000000000000000 4
b11 5
b11 7
b1111111111111011 =
b11 >
b1111 O

#2130001
0!
b11111111111110100000000000000000 %
b1111111111111010 <

#2135001
1!
b11 0
b1100000000 1
b11111111111110100000000000000000 4
b100 5
b100 7
b1111111111111010 =
b100 >
b1111 O

#2140001
0!
b11111111111110110000000000000000 %
b11 5
b11 7
b1111111111111011 <
b11 >

#2145001
1!
b11111111111110110000000000000000 4
b1111111111111011 =
b1111 O

#2150001
0!

#2155001
1!
b1111 O

#2160001
0!
b11111111111110100000000000000000 %
b1111111111111010 <

#2165001
1!
b11111111111110100000000000000000 4
b100 5
b100 7
b1111111111111010 =
b100 >
b1111 O

#2170001
0!
b11111111111110110000000000000000 %
b11 5
b11 7
b1111111111111011 <
b11 >

#2175001
1!
b11111111111110110000000000000000 4
b1111111111111011 =
b1111 O

#2180001
0!

#2185001
1!
b1111 O

#2190001
0!

#2195001
1!
b1111 O

#2200001
0!
b11111111111111000000000000000000 %
b10 5
b10 7
b1111111111111100 <
b10 >

#2205001
1!
b10 0
b1000000000 1
b11111111111111000000000000000000 4
b1111111111111100 =
b1111 O

#2210001
0!

#2215001
1!
b1111 O

#2220001
0!
b11111111111110110000000000000000 %
b1111111111111011 <

